{
	"info": {
		"_postman_id": "98c12e84-9f8f-4c3f-8bae-eb64fc49da8a",
		"name": "FizzBuzzCollection",
		"schema": "https://schema.getpostman.com/json/collection/v2.1.0/collection.json"
	},
	"item": [
		{
			"name": "FizzBuzzClassicQuery",
			"request": {
				"method": "POST",
				"header": [
					{
						"key": "Content-Type",
						"name": "Content-Type",
						"value": "application/json",
						"type": "text"
					}
				],
				"body": {
					"mode": "raw",
					"raw": "{\r\n  \"maxNumber\": 100,\r\n  \"fizzBuzz\": {\r\n    \"3\": \"Fizz\",\r\n    \"5\": \"Buzz\"\r\n  }\r\n}",
					"options": {
						"raw": {
							"language": "json"
						}
					}
				},
				"url": {
					"raw": "{{host}}/FizzBuzz",
					"host": [
						"{{host}}"
					],
					"path": [
						"FizzBuzz"
					]
				}
			},
			"response": []
		},
		{
			"name": "FizzBuzzExtendedQuery",
			"request": {
				"method": "POST",
				"header": [
					{
						"key": "Content-Type",
						"name": "Content-Type",
						"type": "text",
						"value": "application/json"
					}
				],
				"body": {
					"mode": "raw",
					"raw": "{\r\n  \"maxNumber\": 105,\r\n  \"fizzBuzz\": {\r\n    \"3\": \"F\",\r\n    \"5\": \"B\",\r\n    \"7\": \"Z\"\r\n  }\r\n}",
					"options": {
						"raw": {
							"language": "json"
						}
					}
				},
				"url": {
					"raw": "{{host}}/FizzBuzz",
					"host": [
						"{{host}}"
					],
					"path": [
						"FizzBuzz"
					]
				}
			},
			"response": []
		},
		{
			"name": "FizzBuzzMaxOutOfRange",
			"request": {
				"method": "POST",
				"header": [
					{
						"key": "Content-Type",
						"name": "Content-Type",
						"type": "text",
						"value": "application/json"
					}
				],
				"body": {
					"mode": "raw",
					"raw": "{\r\n  \"maxNumber\": 1000000,\r\n  \"fizzBuzz\": {\r\n    \"3\": \"Fizz\",\r\n    \"5\": \"Buzz\",\r\n    \"7\": \"Zuzz\"\r\n  }\r\n}",
					"options": {
						"raw": {
							"language": "json"
						}
					}
				},
				"url": {
					"raw": "{{host}}/FizzBuzz",
					"host": [
						"{{host}}"
					],
					"path": [
						"FizzBuzz"
					]
				}
			},
			"response": []
		},
		{
			"name": "FizzBuzzDivisionByZero",
			"request": {
				"method": "POST",
				"header": [
					{
						"key": "Content-Type",
						"name": "Content-Type",
						"type": "text",
						"value": "application/json"
					}
				],
				"body": {
					"mode": "raw",
					"raw": "{\r\n  \"maxNumber\": 105,\r\n  \"fizzBuzz\": {\r\n    \"0\": \"Fizz\",\r\n    \"5\": \"Buzz\",\r\n    \"7\": \"Zuzz\"\r\n  }\r\n}",
					"options": {
						"raw": {
							"language": "json"
						}
					}
				},
				"url": {
					"raw": "{{host}}/FizzBuzz",
					"host": [
						"{{host}}"
					],
					"path": [
						"FizzBuzz"
					]
				}
			},
			"response": []
		},
		{
			"name": "FizzBuzzNullWord",
			"request": {
				"method": "POST",
				"header": [
					{
						"key": "Content-Type",
						"name": "Content-Type",
						"type": "text",
						"value": "application/json"
					}
				],
				"body": {
					"mode": "raw",
					"raw": "{\r\n  \"maxNumber\": 105,\r\n  \"fizzBuzz\": {\r\n    \"3\": null,\r\n    \"5\": \"Buzz\",\r\n    \"7\": \"Zuzz\"\r\n  }\r\n}",
					"options": {
						"raw": {
							"language": "json"
						}
					}
				},
				"url": {
					"raw": "{{host}}/FizzBuzz",
					"host": [
						"{{host}}"
					],
					"path": [
						"FizzBuzz"
					]
				}
			},
			"response": []
		},
		{
			"name": "FizzBuzzNullRequest",
			"request": {
				"method": "POST",
				"header": [
					{
						"key": "Content-Type",
						"name": "Content-Type",
						"type": "text",
						"value": "application/json"
					}
				],
				"body": {
					"mode": "raw",
					"raw": "",
					"options": {
						"raw": {
							"language": "json"
						}
					}
				},
				"url": {
					"raw": "{{host}}/FizzBuzz",
					"host": [
						"{{host}}"
					],
					"path": [
						"FizzBuzz"
					]
				}
			},
			"response": []
		},
		{
			"name": "FizzBuzzAbout",
			"request": {
				"method": "GET",
				"header": [
					{
						"key": "Content-Type",
						"name": "Content-Type",
						"type": "text",
						"value": "application/json"
					}
				],
				"url": {
					"raw": "{{host}}/",
					"host": [
						"{{host}}"
					],
					"path": [
						""
					]
				}
			},
			"response": []
		}
	],
	"protocolProfileBehavior": {}
}